Тестовое задание на позицию Product analyst
…
Формирование дата фрейма для проверок

action_for_tests <- action_with_metric %>% 
  select(group, time_to_action) %>% 
  mutate(time_to_action = as.numeric(time_to_action)) %>% 
  pivot_wider(
    values_fn = list,
    names_from = group,
    values_from = time_to_action
  ) %>% 
  unnest(c(New, Old))

action_for_tests

## # A tibble: 25,000 × 2
##      New    Old
##    <dbl>  <dbl>
##  1  923.  525. 
##  2  443  1344. 
##  3  190.  327. 
##  4  620.  262. 
##  5  449.  358. 
##  6 1013.  187  
##  7  463.   16.1
##  8  756.  407. 
##  9  198.  240. 
## 10  846   355. 
## # … with 24,990 more rows
…
