…
``` r
# revenue = доход в миллиардах
```

# Обработка данных

``` r
media_franchises %>% 
  count(franchise, sort = TRUE)
```

    ## # A tibble: 103 × 2
    ##    franchise                                     n
    ##    <chr>                                     <int>
    ##  1 Spider-Man                                    7
    ##  2 Dragon Ball                                   6
    ##  3 Final Fantasy                                 6
    ##  4 Neon Genesis Evangelion                       6
    ##  5 Star Wars                                     6
    ##  6 Superman                                      6
    ##  7 Wizarding World / Harry Potter                6
    ##  8 A Song of Ice and Fire /  Game of Thrones     5
    ##  9 Aladdin                                       5
    ## 10 Detective Conan / Case Closed                 5
    ## # … with 93 more rows
…
