Анализ сериала The Office
…
Транскрипция эпизодов

В общем картина такая

# Убираю его -text_w_direction, потому что там тот же самый текст только с направлением
transcript_words <- office_transcripts %>% 
  select(-text_w_direction) %>% 
  unnest_tokens(word, text)

transcript_words %>% 
  count(word, sort = TRUE)

## # A tibble: 19,617 x 2
##    word      n
##    <chr> <int>
##  1 i     20757
##  2 you   19940
##  3 the   14489
##  4 to    13507
##  5 a     12922
##  6 and    8823
##  7 it     8365
##  8 that   7776
##  9 is     7408
## 10 of     6324
## # … with 19,607 more rows
…
transcript_words <- office_transcripts %>%
  group_by(character) %>%
  filter(n() >= 100,
         n_distinct(episode_name) > 2) %>%
  ungroup() %>%
  select(-text_w_direction) %>%
  unnest_tokens(word, text) %>%
  anti_join(stop_words, by = "word") %>%
  filter(!word %in% blacklist,
         !character %in% blacklist_characters)

transcript_words

## # A tibble: 149,237 x 12
##    index season episode episode_name director writer character imdb_rating
##    <int>  <int>   <int> <chr>        <chr>    <chr>  <chr>           <dbl>
##  1     1      1       1 Pilot        Ken Kwa… Ricky… Michael           7.6
##  2     1      1       1 Pilot        Ken Kwa… Ricky… Michael           7.6
##  3     1      1       1 Pilot        Ken Kwa… Ricky… Michael           7.6
##  4     2      1       1 Pilot        Ken Kwa… Ricky… Jim               7.6
##  5     2      1       1 Pilot        Ken Kwa… Ricky… Jim               7.6
##  6     3      1       1 Pilot        Ken Kwa… Ricky… Michael           7.6
##  7     3      1       1 Pilot        Ken Kwa… Ricky… Michael           7.6
##  8     3      1       1 Pilot        Ken Kwa… Ricky… Michael           7.6
##  9     4      1       1 Pilot        Ken Kwa… Ricky… Jim               7.6
## 10     6      1       1 Pilot        Ken Kwa… Ricky… Michael           7.6
## # … with 149,227 more rows, and 4 more variables: total_votes <int>,
## #   air_date <fct>, name <chr>, word <chr>

Определим наиболее активных персонажей. В этом нам поможет статистическая мера, применяемая для анализа текстов TF-IDF

character_tf_idf <- transcript_words %>%
  add_count(word) %>%
  filter(n >= 20) %>%
  count(word, character) %>%
  bind_tf_idf(word, character, n) %>%
  arrange(desc(tf_idf))

character_tf_idf

## # A tibble: 18,372 x 6
##    word     character     n     tf   idf tf_idf
##    <chr>    <chr>     <int>  <dbl> <dbl>  <dbl>
##  1 pum      Angela       27 0.0107 2.71  0.0289
##  2 na       Darryl       48 0.0215 1.32  0.0284
##  3 andrew   Robert       15 0.0143 1.79  0.0255
##  4 mike     Darryl       46 0.0206 1.00  0.0206
##  5 printers Jo            8 0.0156 1.32  0.0206
##  6 michael  Jan         159 0.112  0.182 0.0204
##  7 hank     Charles       4 0.0115 1.61  0.0185
##  8 michael  David        67 0.0892 0.182 0.0163
##  9 michael  Charles      28 0.0805 0.182 0.0147
## 10 woah     Charles       4 0.0115 1.20  0.0138
## # … with 18,362 more rows
…
Режиссёр

Сценарист

Количество реплик героев

Сделаем аккуратную таблицу с рейтингом серий

ratings_summarized <- office_ratings %>%
  group_by(name) %>%
  summarize(imdb_rating = mean(imdb_rating))

ratings_summarized

## # A tibble: 185 x 2
##    name                 imdb_rating
##    <chr>                      <dbl>
##  1 a benihana christmas         8.7
##  2 aarm                         9.3
##  3 after hours                  8.1
##  4 andy's ancestry              7.5
##  5 andy's play                  8.2
##  6 angry andy                   7.1
##  7 baby shower                  8.1
##  8 back from vacation           8.5
##  9 basketball                   8.4
## 10 beach games                  9.1
## # … with 175 more rows
…
character_lines_ratings <- office_transcripts %>%
  filter(!character %in% blacklist_characters) %>%
  count(character, name) %>%
  group_by(character) %>%
  filter(sum(n) >= 50,
         n() >= 5) %>%
  inner_join(ratings_summarized, by = "name")

character_lines_ratings %>%
  summarize(avg_rating = mean(imdb_rating),
            nb_episodes = n()) %>%
  arrange(desc(avg_rating))

## # A tibble: 39 x 3
##    character     avg_rating nb_episodes
##    <chr>              <dbl>       <int>
##  1 Carol               8.7            6
##  2 Charles             8.62           6
##  3 Karen               8.6           25
##  4 Holly               8.57          16
##  5 Jan                 8.48          37
##  6 Michael             8.42         130
##  7 David Wallace       8.42          16
##  8 David               8.38          27
##  9 Roy                 8.36          28
## 10 Josh                8.34           7
## # … with 29 more rows
…
